<?xml version="1.0" encoding="utf-8"?>
<!-- Generator: Adobe Illustrator 21.1.0, SVG Export Plug-In . SVG Version: 6.00 Build 0)  -->
<svg version="1.1" id="Layer_1" xmlns="http://www.w3.org/2000/svg" xmlns:xlink="http://www.w3.org/1999/xlink" x="0px" y="0px"
	 viewBox="0 0 44 26" enable-background="new 0 0 44 26" xml:space="preserve" width="44" height="26">
<g>
	<line fill="none" stroke="#CCCCCC" stroke-miterlimit="10" x1="42" y1="13.5" x2="1" y2="13.5"/>
	<polyline fill="none" stroke="#CCCCCC" stroke-miterlimit="10" points="30,0.5 43,13.5 30,25.5 	"/>
</g>
</svg>
