<?xml version="1.0" encoding="utf-8"?>
<!-- Generator: Adobe Illustrator 21.1.0, SVG Export Plug-In . SVG Version: 6.00 Build 0)  -->
<svg version="1.1" id="Layer_1" xmlns="http://www.w3.org/2000/svg" xmlns:xlink="http://www.w3.org/1999/xlink" x="0px" y="0px"
	 viewBox="0 0 900 590" enable-background="new 0 0 900 590" xml:space="preserve" width="900px" height="590px">
<g>
	<g>
		<g>
			<linearGradient id="SVGID_2_" gradientUnits="userSpaceOnUse" x1="-56.6994" y1="38.4889" x2="1098.8177" y2="567.166">
				<stop  offset="0" style="stop-color:#57C3C3"/>
				<stop  offset="0.3488" style="stop-color:#2BB7DD"/>
				<stop  offset="0.7236" style="stop-color:#108FCA"/>
				<stop  offset="1" style="stop-color:#0B70B7"/>
			</linearGradient>
			<polygon opacity="0.2" fill="url(#SVGID_2_)" points="677.6,412.7 164,412.7 18.2,412.7 18.2,34.5 569.3,34.5 677.6,34.5 			"/>
			<polygon fill="#FFFFFF" points="779.6,511.7 266,511.7 120.2,511.7 120.2,133.5 671.3,133.5 779.6,133.5 			"/>
			<linearGradient id="SVGID_3_" gradientUnits="userSpaceOnUse" x1="120.1948" y1="322.5918" x2="779.5568" y2="322.5918">
				<stop  offset="0" style="stop-color:#57C3C3"/>
				<stop  offset="0.3488" style="stop-color:#2BB7DD"/>
				<stop  offset="0.7236" style="stop-color:#108FCA"/>
				<stop  offset="1" style="stop-color:#0B70B7"/>
			</linearGradient>
			<polygon opacity="0.1" fill="url(#SVGID_3_)" points="266,511.7 120.2,511.7 671.3,133.5 779.6,133.5 			"/>
			<g>
				<path fill="#E6E7E8" d="M883.8,564.7c0,0,1.6-7.5-9.3-7.2l-327.5,0l0,4.7c0,4.7-1.9,3.8-1.9,3.8h-98.5H446h-98.5
					c0,0-1.9,1-1.9-3.8l0-4.7l-320.3,0c-11-0.2-9.3,7.2-9.3,7.2l-0.1,15.2c0.1,8.9,8.9,7.1,8.9,7.1h420.1h2.6h427.3
					c0,0,8.8,1.8,8.9-7.1L883.8,564.7z"/>
				<path fill="#353938" d="M799.6,123.8c0.5-10.8-12.4-12.2-12.4-12.2H446.3H112.6c0,0-12.8,1.5-12.4,12.2l0,413.1
					c0,0,0,9.3,10.8,9.1h335.3h342.5c10.9,0.2,10.8-9.1,10.8-9.1L799.6,123.8z M446.3,536.7c-4.4,0-7.9-3.5-7.9-7.9
					c0-4.4,3.5-7.9,7.9-7.9c4.4,0,7.9,3.5,7.9,7.9C454.2,533.2,450.6,536.7,446.3,536.7z M779.6,511.7H266H120.2V133.5h551.1h108.3
					V511.7z"/>
			</g>
			<g>
				<linearGradient id="SVGID_4_" gradientUnits="userSpaceOnUse" x1="402.9699" y1="470.264" x2="415.8039" y2="470.264">
					<stop  offset="0" style="stop-color:#57C3C3"/>
					<stop  offset="0.3694" style="stop-color:#2BB7DD"/>
				</linearGradient>
				<ellipse fill="url(#SVGID_4_)" cx="409.4" cy="470.3" rx="6.4" ry="6.4"/>
				<linearGradient id="SVGID_5_" gradientUnits="userSpaceOnUse" x1="429.9639" y1="470.264" x2="442.7979" y2="470.264">
					<stop  offset="0" style="stop-color:#57C3C3"/>
					<stop  offset="0.3694" style="stop-color:#2BB7DD"/>
				</linearGradient>
				<ellipse fill="url(#SVGID_5_)" cx="436.4" cy="470.3" rx="6.4" ry="6.4"/>
				<linearGradient id="SVGID_6_" gradientUnits="userSpaceOnUse" x1="456.9578" y1="470.264" x2="469.7918" y2="470.264">
					<stop  offset="0" style="stop-color:#57C3C3"/>
					<stop  offset="0.3694" style="stop-color:#2BB7DD"/>
				</linearGradient>
				<ellipse fill="url(#SVGID_6_)" cx="463.4" cy="470.3" rx="6.4" ry="6.4"/>
				<linearGradient id="SVGID_7_" gradientUnits="userSpaceOnUse" x1="483.9518" y1="470.264" x2="496.7858" y2="470.264">
					<stop  offset="0" style="stop-color:#57C3C3"/>
					<stop  offset="0.3694" style="stop-color:#2BB7DD"/>
				</linearGradient>
				<ellipse fill="url(#SVGID_7_)" cx="490.4" cy="470.3" rx="6.4" ry="6.4"/>
			</g>
		</g>
		<g>
			<linearGradient id="SVGID_8_" gradientUnits="userSpaceOnUse" x1="29.3458" y1="452.6827" x2="-22.306" y2="494.6255">
				<stop  offset="0" style="stop-color:#57C3C3"/>
				<stop  offset="0.3488" style="stop-color:#2BB7DD"/>
				<stop  offset="0.7236" style="stop-color:#108FCA"/>
				<stop  offset="1" style="stop-color:#0B70B7"/>
			</linearGradient>
			<path fill="url(#SVGID_8_)" d="M24.7,457.1c0.2,0.3,0.5,0.4,0.8,0.4c0.2,0,0.4-0.1,0.6-0.2c0.5-0.3,0.6-1,0.3-1.4
				c-0.3-0.4-0.5-0.7-0.8-1.1c-0.4-0.4-1-0.5-1.4-0.1c-0.4,0.4-0.5,1-0.1,1.4C24.3,456.5,24.5,456.8,24.7,457.1z"/>
			<linearGradient id="SVGID_9_" gradientUnits="userSpaceOnUse" x1="29.115" y1="452.3985" x2="-22.5368" y2="494.3413">
				<stop  offset="0" style="stop-color:#57C3C3"/>
				<stop  offset="0.3488" style="stop-color:#2BB7DD"/>
				<stop  offset="0.7236" style="stop-color:#108FCA"/>
				<stop  offset="1" style="stop-color:#0B70B7"/>
			</linearGradient>
			<path fill="url(#SVGID_9_)" d="M1.2,465.6c0.1,0.4,0.1,0.9,0.2,1.3c0.1,0.4,0.2,0.9,0.4,1.3c0.1,0.4,0.3,0.8,0.5,1.2
				c0.2,0.4,0.4,0.8,0.6,1.2c0.2,0.4,0.5,0.8,0.7,1.1c0.3,0.4,0.5,0.7,0.8,1.1c0.3,0.3,0.6,0.7,0.9,1c0.3,0.3,0.7,0.6,1,0.9
				c0.4,0.3,0.7,0.5,1.1,0.8c0.4,0.3,0.8,0.5,1.2,0.7c0.4,0.2,0.8,0.4,1.3,0.6c0.4,0.2,0.9,0.3,1.3,0.5c0.5,0.1,0.9,0.2,1.4,0.3
				c0.5,0.1,0.9,0.1,1.4,0.2c0.3,0,0.7,0,1,0c0.1,0,0.2,0,0.3,0c0.5,0,0.9,0,1.4-0.1c0.4-0.1,0.9-0.1,1.3-0.2
				c0.4-0.1,0.9-0.2,1.3-0.4c0.4-0.1,0.8-0.3,1.2-0.5c0.4-0.2,0.8-0.4,1.2-0.6c0.4-0.2,0.8-0.5,1.1-0.7c0.4-0.3,0.7-0.5,1.1-0.8
				c0.3-0.3,0.7-0.6,1-0.9c0.3-0.3,0.6-0.7,0.9-1c0.3-0.3,0.5-0.7,0.8-1.1c0.2-0.4,0.5-0.8,0.7-1.2c0.2-0.4,0.4-0.8,0.6-1.3
				c0.2-0.4,0.3-0.9,0.5-1.3c0.1-0.5,0.2-0.9,0.3-1.4c0.1-0.5,0.1-0.9,0.2-1.4c0-0.5,0-0.9,0-1.4c0-0.5,0-0.9-0.1-1.4
				c-0.1-0.4-0.1-0.9-0.2-1.3c-0.1-0.4-0.2-0.9-0.4-1.3c-0.2-0.5-0.8-0.8-1.3-0.7c-0.5,0.2-0.8,0.8-0.7,1.3c0.1,0.4,0.2,0.7,0.3,1.1
				c0.1,0.4,0.2,0.8,0.2,1.1c0,0.4,0.1,0.8,0.1,1.2c0,0.4,0,0.8,0,1.2c0,0.4-0.1,0.8-0.1,1.2c-0.1,0.4-0.2,0.8-0.3,1.2
				c-0.1,0.4-0.2,0.8-0.4,1.1c-0.1,0.4-0.3,0.7-0.5,1.1c-0.2,0.3-0.4,0.7-0.6,1c-0.2,0.3-0.4,0.6-0.7,0.9c-0.2,0.3-0.5,0.6-0.8,0.9
				c-0.3,0.3-0.5,0.5-0.8,0.8c-0.3,0.2-0.6,0.5-0.9,0.7c-0.3,0.2-0.6,0.4-1,0.6c-0.3,0.2-0.7,0.4-1,0.5c-0.3,0.2-0.7,0.3-1.1,0.4
				c-0.4,0.1-0.7,0.2-1.1,0.3c-0.4,0.1-0.7,0.1-1.1,0.2c-0.4,0-0.8,0.1-1.2,0.1c-0.4,0-0.8,0-1.2,0c-0.4,0-0.8-0.1-1.2-0.1
				c-0.4-0.1-0.8-0.2-1.2-0.3c-0.4-0.1-0.8-0.2-1.1-0.4c-0.4-0.1-0.7-0.3-1.1-0.5c-0.3-0.2-0.7-0.4-1-0.6c-0.3-0.2-0.6-0.4-0.9-0.7
				c-0.3-0.2-0.6-0.5-0.9-0.8c-0.3-0.3-0.5-0.5-0.8-0.8c-0.2-0.3-0.5-0.6-0.7-0.9c-0.2-0.3-0.4-0.6-0.6-1c-0.2-0.3-0.4-0.7-0.5-1
				c-0.2-0.3-0.3-0.7-0.4-1.1c-0.1-0.4-0.2-0.7-0.3-1.1c-0.1-0.4-0.2-0.8-0.2-1.1c0-0.4-0.1-0.8-0.1-1.2c0-0.4,0-0.8,0-1.2
				c0-0.4,0.1-0.8,0.1-1.2c0.1-0.4,0.2-0.8,0.3-1.2c0.1-0.4,0.2-0.8,0.4-1.1c0.1-0.4,0.3-0.7,0.5-1.1c0.2-0.3,0.4-0.7,0.6-1
				c0.2-0.3,0.4-0.6,0.7-0.9c0.2-0.3,0.5-0.6,0.8-0.9c0.3-0.3,0.5-0.5,0.8-0.8c0.3-0.2,0.6-0.5,0.9-0.7c0.3-0.2,0.6-0.4,1-0.6
				c0.3-0.2,0.7-0.4,1-0.5c0.3-0.2,0.7-0.3,1.1-0.4s0.7-0.2,1.1-0.3c0.4-0.1,0.8-0.2,1.1-0.2c0.4,0,0.8-0.1,1.2-0.1
				c0.4,0,0.8,0,1.2,0c0.4,0,0.8,0.1,1.2,0.1c0.4,0.1,0.8,0.2,1.2,0.3c0.4,0.1,0.8,0.2,1.1,0.4c0.4,0.1,0.7,0.3,1.1,0.5
				c0.3,0.2,0.7,0.4,1,0.6c0.5,0.3,1.1,0.2,1.4-0.3c0.3-0.5,0.2-1.1-0.3-1.4c-0.4-0.2-0.8-0.5-1.2-0.7c-0.4-0.2-0.8-0.4-1.3-0.6
				c-0.4-0.2-0.9-0.3-1.3-0.5c-0.5-0.1-0.9-0.2-1.4-0.3c-0.5-0.1-0.9-0.1-1.4-0.2c-0.5,0-0.9,0-1.4,0c-0.5,0-0.9,0-1.4,0.1
				c-0.4,0.1-0.9,0.1-1.3,0.2c-0.4,0.1-0.9,0.2-1.3,0.4c-0.4,0.1-0.8,0.3-1.2,0.5c-0.4,0.2-0.8,0.4-1.2,0.6
				c-0.4,0.2-0.8,0.5-1.1,0.7c-0.4,0.3-0.7,0.5-1.1,0.8c-0.3,0.3-0.7,0.6-1,0.9c-0.3,0.3-0.6,0.7-0.9,1c-0.3,0.3-0.5,0.7-0.8,1.1
				c-0.2,0.4-0.5,0.8-0.7,1.2c-0.2,0.4-0.4,0.8-0.6,1.3c-0.2,0.4-0.3,0.9-0.5,1.3c-0.1,0.5-0.2,0.9-0.3,1.4
				c-0.1,0.5-0.1,0.9-0.2,1.4c0,0.5,0,0.9,0,1.4C1.2,464.7,1.2,465.1,1.2,465.6z"/>
		</g>
		<g>
			<linearGradient id="SVGID_10_" gradientUnits="userSpaceOnUse" x1="89.3457" y1="62.683" x2="37.6939" y2="104.6259">
				<stop  offset="0" style="stop-color:#57C3C3"/>
				<stop  offset="0.3488" style="stop-color:#2BB7DD"/>
				<stop  offset="0.7236" style="stop-color:#108FCA"/>
				<stop  offset="1" style="stop-color:#0B70B7"/>
			</linearGradient>
			<path fill="url(#SVGID_10_)" d="M84.7,67.1c0.2,0.3,0.5,0.4,0.8,0.4c0.2,0,0.4-0.1,0.6-0.2c0.5-0.3,0.6-1,0.3-1.4
				c-0.3-0.4-0.5-0.7-0.8-1.1c-0.4-0.4-1-0.5-1.4-0.1c-0.4,0.4-0.5,1-0.1,1.4C84.3,66.5,84.5,66.8,84.7,67.1z"/>
			<linearGradient id="SVGID_12_" gradientUnits="userSpaceOnUse" x1="89.115" y1="62.3988" x2="37.4631" y2="104.3417">
				<stop  offset="0" style="stop-color:#57C3C3"/>
				<stop  offset="0.3488" style="stop-color:#2BB7DD"/>
				<stop  offset="0.7236" style="stop-color:#108FCA"/>
				<stop  offset="1" style="stop-color:#0B70B7"/>
			</linearGradient>
			<path fill="url(#SVGID_12_)" d="M61.2,75.6c0.1,0.4,0.1,0.9,0.2,1.3c0.1,0.4,0.2,0.9,0.4,1.3c0.1,0.4,0.3,0.8,0.5,1.2
				c0.2,0.4,0.4,0.8,0.6,1.2c0.2,0.4,0.5,0.8,0.7,1.1c0.3,0.4,0.5,0.7,0.8,1.1c0.3,0.3,0.6,0.7,0.9,1c0.3,0.3,0.7,0.6,1,0.9
				c0.4,0.3,0.7,0.5,1.1,0.8c0.4,0.3,0.8,0.5,1.2,0.7c0.4,0.2,0.8,0.4,1.3,0.6c0.4,0.2,0.9,0.3,1.3,0.5c0.5,0.1,0.9,0.2,1.4,0.3
				c0.5,0.1,0.9,0.1,1.4,0.2c0.3,0,0.7,0,1,0c0.1,0,0.2,0,0.3,0c0.5,0,0.9,0,1.4-0.1c0.4-0.1,0.9-0.1,1.3-0.2
				c0.4-0.1,0.9-0.2,1.3-0.4c0.4-0.1,0.8-0.3,1.2-0.5c0.4-0.2,0.8-0.4,1.2-0.6s0.8-0.5,1.1-0.7c0.4-0.3,0.7-0.5,1.1-0.8
				c0.3-0.3,0.7-0.6,1-0.9c0.3-0.3,0.6-0.7,0.9-1c0.3-0.3,0.5-0.7,0.8-1.1c0.2-0.4,0.5-0.8,0.7-1.2c0.2-0.4,0.4-0.8,0.6-1.3
				c0.2-0.4,0.3-0.9,0.5-1.3c0.1-0.5,0.2-0.9,0.3-1.4c0.1-0.5,0.1-0.9,0.2-1.4c0-0.5,0-0.9,0-1.4c0-0.5,0-0.9-0.1-1.4
				c-0.1-0.4-0.1-0.9-0.2-1.3c-0.1-0.4-0.2-0.9-0.4-1.3c-0.2-0.5-0.8-0.8-1.3-0.7c-0.5,0.2-0.8,0.8-0.7,1.3c0.1,0.4,0.2,0.7,0.3,1.1
				c0.1,0.4,0.2,0.8,0.2,1.1c0,0.4,0.1,0.8,0.1,1.2c0,0.4,0,0.8,0,1.2c0,0.4-0.1,0.8-0.1,1.2c-0.1,0.4-0.2,0.8-0.3,1.2
				c-0.1,0.4-0.2,0.8-0.4,1.1c-0.1,0.4-0.3,0.7-0.5,1.1c-0.2,0.3-0.4,0.7-0.6,1c-0.2,0.3-0.4,0.6-0.7,0.9c-0.2,0.3-0.5,0.6-0.8,0.9
				c-0.3,0.3-0.5,0.5-0.8,0.8c-0.3,0.2-0.6,0.5-0.9,0.7c-0.3,0.2-0.6,0.4-1,0.6c-0.3,0.2-0.7,0.4-1,0.5c-0.3,0.2-0.7,0.3-1.1,0.4
				c-0.4,0.1-0.7,0.2-1.1,0.3c-0.4,0.1-0.7,0.1-1.1,0.2c-0.4,0-0.8,0.1-1.2,0.1c-0.4,0-0.8,0-1.2,0c-0.4,0-0.8-0.1-1.2-0.1
				c-0.4-0.1-0.8-0.2-1.2-0.3c-0.4-0.1-0.8-0.2-1.1-0.4c-0.4-0.1-0.7-0.3-1.1-0.5c-0.3-0.2-0.7-0.4-1-0.6c-0.3-0.2-0.6-0.4-0.9-0.7
				c-0.3-0.2-0.6-0.5-0.9-0.8c-0.3-0.3-0.5-0.5-0.8-0.8c-0.2-0.3-0.5-0.6-0.7-0.9c-0.2-0.3-0.4-0.6-0.6-1c-0.2-0.3-0.4-0.7-0.5-1
				c-0.2-0.3-0.3-0.7-0.4-1.1c-0.1-0.4-0.2-0.7-0.3-1.1c-0.1-0.4-0.2-0.8-0.2-1.1c0-0.4-0.1-0.8-0.1-1.2c0-0.4,0-0.8,0-1.2
				c0-0.4,0.1-0.8,0.1-1.2c0.1-0.4,0.2-0.8,0.3-1.2c0.1-0.4,0.2-0.8,0.4-1.1c0.1-0.4,0.3-0.7,0.5-1.1c0.2-0.3,0.4-0.7,0.6-1
				c0.2-0.3,0.4-0.6,0.7-0.9c0.2-0.3,0.5-0.6,0.8-0.9c0.3-0.3,0.5-0.5,0.8-0.8c0.3-0.2,0.6-0.5,0.9-0.7c0.3-0.2,0.6-0.4,1-0.6
				c0.3-0.2,0.7-0.4,1-0.5c0.3-0.2,0.7-0.3,1.1-0.4c0.4-0.1,0.7-0.2,1.1-0.3c0.4-0.1,0.8-0.2,1.1-0.2c0.4,0,0.8-0.1,1.2-0.1
				c0.4,0,0.8,0,1.2,0c0.4,0,0.8,0.1,1.2,0.1c0.4,0.1,0.8,0.2,1.2,0.3c0.4,0.1,0.8,0.2,1.1,0.4c0.4,0.1,0.7,0.3,1.1,0.5
				c0.3,0.2,0.7,0.4,1,0.6c0.5,0.3,1.1,0.2,1.4-0.3c0.3-0.5,0.2-1.1-0.3-1.4c-0.4-0.2-0.8-0.5-1.2-0.7c-0.4-0.2-0.8-0.4-1.3-0.6
				c-0.4-0.2-0.9-0.3-1.3-0.5c-0.5-0.1-0.9-0.2-1.4-0.3c-0.5-0.1-0.9-0.1-1.4-0.2c-0.5,0-0.9,0-1.4,0c-0.5,0-0.9,0-1.4,0.1
				c-0.4,0.1-0.9,0.1-1.3,0.2c-0.4,0.1-0.9,0.2-1.3,0.4c-0.4,0.1-0.8,0.3-1.2,0.5c-0.4,0.2-0.8,0.4-1.2,0.6
				c-0.4,0.2-0.8,0.5-1.1,0.7c-0.4,0.3-0.7,0.5-1.1,0.8c-0.3,0.3-0.7,0.6-1,0.9c-0.3,0.3-0.6,0.7-0.9,1c-0.3,0.3-0.5,0.7-0.8,1.1
				c-0.2,0.4-0.5,0.8-0.7,1.2c-0.2,0.4-0.4,0.8-0.6,1.3c-0.2,0.4-0.3,0.9-0.5,1.3c-0.1,0.5-0.2,0.9-0.3,1.4
				c-0.1,0.5-0.1,0.9-0.2,1.4c0,0.5,0,0.9,0,1.4C61.2,74.7,61.2,75.1,61.2,75.6z"/>
		</g>
		<g>
			<linearGradient id="SVGID_13_" gradientUnits="userSpaceOnUse" x1="899.345" y1="242.6828" x2="847.6932" y2="284.6257">
				<stop  offset="0" style="stop-color:#57C3C3"/>
				<stop  offset="0.3488" style="stop-color:#2BB7DD"/>
				<stop  offset="0.7236" style="stop-color:#108FCA"/>
				<stop  offset="1" style="stop-color:#0B70B7"/>
			</linearGradient>
			<path fill="url(#SVGID_13_)" d="M894.7,247.1c0.2,0.3,0.5,0.4,0.8,0.4c0.2,0,0.4-0.1,0.6-0.2c0.5-0.3,0.6-1,0.3-1.4
				c-0.3-0.4-0.5-0.7-0.8-1.1c-0.4-0.4-1-0.5-1.4-0.1c-0.4,0.4-0.5,1-0.1,1.4C894.3,246.5,894.5,246.8,894.7,247.1z"/>
			<linearGradient id="SVGID_14_" gradientUnits="userSpaceOnUse" x1="899.1143" y1="242.3987" x2="847.4624" y2="284.3415">
				<stop  offset="0" style="stop-color:#57C3C3"/>
				<stop  offset="0.3488" style="stop-color:#2BB7DD"/>
				<stop  offset="0.7236" style="stop-color:#108FCA"/>
				<stop  offset="1" style="stop-color:#0B70B7"/>
			</linearGradient>
			<path fill="url(#SVGID_14_)" d="M871.2,255.6c0.1,0.4,0.1,0.9,0.2,1.3c0.1,0.4,0.2,0.9,0.4,1.3c0.1,0.4,0.3,0.8,0.5,1.2
				c0.2,0.4,0.4,0.8,0.6,1.2c0.2,0.4,0.5,0.8,0.7,1.1c0.3,0.4,0.5,0.7,0.8,1.1c0.3,0.3,0.6,0.7,0.9,1c0.3,0.3,0.7,0.6,1,0.9
				c0.4,0.3,0.7,0.5,1.1,0.8c0.4,0.3,0.8,0.5,1.2,0.7c0.4,0.2,0.8,0.4,1.3,0.6c0.4,0.2,0.9,0.3,1.3,0.5c0.5,0.1,0.9,0.2,1.4,0.3
				c0.5,0.1,0.9,0.1,1.4,0.2c0.3,0,0.7,0,1,0c0.1,0,0.2,0,0.4,0c0.5,0,0.9,0,1.4-0.1c0.4-0.1,0.9-0.1,1.3-0.2
				c0.4-0.1,0.9-0.2,1.3-0.4c0.4-0.1,0.8-0.3,1.2-0.5c0.4-0.2,0.8-0.4,1.2-0.6c0.4-0.2,0.8-0.5,1.1-0.7c0.4-0.3,0.7-0.5,1.1-0.8
				c0.3-0.3,0.7-0.6,1-0.9c0.3-0.3,0.6-0.7,0.9-1c0.3-0.3,0.5-0.7,0.8-1.1c0.2-0.4,0.5-0.8,0.7-1.2c0.2-0.4,0.4-0.8,0.6-1.3
				c0.2-0.4,0.3-0.9,0.5-1.3c0.1-0.5,0.2-0.9,0.3-1.4c0.1-0.5,0.1-0.9,0.2-1.4c0-0.5,0-0.9,0-1.4c0-0.5,0-0.9-0.1-1.4
				c-0.1-0.4-0.1-0.9-0.2-1.3c-0.1-0.4-0.2-0.9-0.4-1.3c-0.2-0.5-0.8-0.8-1.3-0.7c-0.5,0.2-0.8,0.8-0.7,1.3c0.1,0.4,0.2,0.7,0.3,1.1
				c0.1,0.4,0.2,0.8,0.2,1.1c0,0.4,0.1,0.8,0.1,1.2c0,0.4,0,0.8,0,1.2c0,0.4-0.1,0.8-0.1,1.2c-0.1,0.4-0.2,0.8-0.3,1.2
				c-0.1,0.4-0.2,0.8-0.4,1.1c-0.1,0.4-0.3,0.7-0.5,1.1c-0.2,0.3-0.4,0.7-0.6,1c-0.2,0.3-0.4,0.6-0.7,0.9c-0.2,0.3-0.5,0.6-0.8,0.9
				c-0.3,0.3-0.5,0.5-0.8,0.8c-0.3,0.2-0.6,0.5-0.9,0.7c-0.3,0.2-0.6,0.4-1,0.6c-0.3,0.2-0.7,0.4-1,0.5c-0.3,0.2-0.7,0.3-1.1,0.4
				c-0.4,0.1-0.7,0.2-1.1,0.3c-0.4,0.1-0.7,0.1-1.1,0.2c-0.4,0-0.8,0.1-1.2,0.1c-0.4,0-0.8,0-1.2,0c-0.4,0-0.8-0.1-1.2-0.1
				c-0.4-0.1-0.8-0.2-1.2-0.3c-0.4-0.1-0.8-0.2-1.1-0.4c-0.4-0.1-0.7-0.3-1.1-0.5c-0.3-0.2-0.7-0.4-1-0.6c-0.3-0.2-0.6-0.4-0.9-0.7
				c-0.3-0.2-0.6-0.5-0.9-0.8c-0.3-0.3-0.5-0.5-0.8-0.8c-0.2-0.3-0.5-0.6-0.7-0.9c-0.2-0.3-0.4-0.6-0.6-1c-0.2-0.3-0.4-0.7-0.5-1
				c-0.2-0.3-0.3-0.7-0.4-1.1c-0.1-0.4-0.2-0.7-0.3-1.1c-0.1-0.4-0.2-0.8-0.2-1.1c0-0.4-0.1-0.8-0.1-1.2c0-0.4,0-0.8,0-1.2
				c0-0.4,0.1-0.8,0.1-1.2c0.1-0.4,0.2-0.8,0.3-1.2c0.1-0.4,0.2-0.8,0.4-1.1c0.1-0.4,0.3-0.7,0.5-1.1c0.2-0.3,0.4-0.7,0.6-1
				c0.2-0.3,0.4-0.6,0.7-0.9c0.2-0.3,0.5-0.6,0.8-0.9c0.3-0.3,0.5-0.5,0.8-0.8c0.3-0.2,0.6-0.5,0.9-0.7c0.3-0.2,0.6-0.4,1-0.6
				c0.3-0.2,0.7-0.4,1-0.5c0.3-0.2,0.7-0.3,1.1-0.4c0.4-0.1,0.7-0.2,1.1-0.3c0.4-0.1,0.8-0.2,1.1-0.2c0.4,0,0.8-0.1,1.2-0.1
				c0.4,0,0.8,0,1.2,0c0.4,0,0.8,0.1,1.2,0.1c0.4,0.1,0.8,0.2,1.2,0.3c0.4,0.1,0.8,0.2,1.1,0.4c0.4,0.1,0.7,0.3,1.1,0.5
				c0.3,0.2,0.7,0.4,1,0.6c0.5,0.3,1.1,0.2,1.4-0.3c0.3-0.5,0.2-1.1-0.3-1.4c-0.4-0.2-0.8-0.5-1.2-0.7c-0.4-0.2-0.8-0.4-1.3-0.6
				c-0.4-0.2-0.9-0.3-1.3-0.5c-0.5-0.1-0.9-0.2-1.4-0.3c-0.5-0.1-0.9-0.1-1.4-0.2c-0.5,0-0.9,0-1.4,0c-0.5,0-0.9,0-1.4,0.1
				c-0.4,0.1-0.9,0.1-1.3,0.2c-0.4,0.1-0.9,0.2-1.3,0.4c-0.4,0.1-0.8,0.3-1.2,0.5c-0.4,0.2-0.8,0.4-1.2,0.6
				c-0.4,0.2-0.8,0.5-1.1,0.7c-0.4,0.3-0.7,0.5-1.1,0.8c-0.3,0.3-0.7,0.6-1,0.9c-0.3,0.3-0.6,0.7-0.9,1c-0.3,0.3-0.5,0.7-0.8,1.1
				c-0.2,0.4-0.5,0.8-0.7,1.2c-0.2,0.4-0.4,0.8-0.6,1.3c-0.2,0.4-0.3,0.9-0.5,1.3c-0.1,0.5-0.2,0.9-0.3,1.4
				c-0.1,0.5-0.1,0.9-0.2,1.4c0,0.5,0,0.9,0,1.4C871.2,254.7,871.2,255.1,871.2,255.6z"/>
		</g>
		<g>
			<linearGradient id="SVGID_15_" gradientUnits="userSpaceOnUse" x1="629.3453" y1="2.6831" x2="577.6934" y2="44.6259">
				<stop  offset="0" style="stop-color:#57C3C3"/>
				<stop  offset="0.3488" style="stop-color:#2BB7DD"/>
				<stop  offset="0.7236" style="stop-color:#108FCA"/>
				<stop  offset="1" style="stop-color:#0B70B7"/>
			</linearGradient>
			<path fill="url(#SVGID_15_)" d="M624.7,7.1c0.2,0.3,0.5,0.4,0.8,0.4c0.2,0,0.4-0.1,0.6-0.2c0.5-0.3,0.6-1,0.3-1.4
				c-0.3-0.4-0.5-0.7-0.8-1.1c-0.4-0.4-1-0.5-1.4-0.1c-0.4,0.4-0.5,1-0.1,1.4C624.3,6.5,624.5,6.8,624.7,7.1z"/>
			<linearGradient id="SVGID_16_" gradientUnits="userSpaceOnUse" x1="629.1145" y1="2.3989" x2="577.4626" y2="44.3417">
				<stop  offset="0" style="stop-color:#57C3C3"/>
				<stop  offset="0.3488" style="stop-color:#2BB7DD"/>
				<stop  offset="0.7236" style="stop-color:#108FCA"/>
				<stop  offset="1" style="stop-color:#0B70B7"/>
			</linearGradient>
			<path fill="url(#SVGID_16_)" d="M601.2,15.6c0.1,0.4,0.1,0.9,0.2,1.3c0.1,0.4,0.2,0.9,0.4,1.3c0.1,0.4,0.3,0.8,0.5,1.2
				c0.2,0.4,0.4,0.8,0.6,1.2c0.2,0.4,0.5,0.8,0.7,1.1c0.3,0.4,0.5,0.7,0.8,1.1c0.3,0.3,0.6,0.7,0.9,1c0.3,0.3,0.7,0.6,1,0.9
				c0.4,0.3,0.7,0.5,1.1,0.8c0.4,0.3,0.8,0.5,1.2,0.7c0.4,0.2,0.8,0.4,1.3,0.6c0.4,0.2,0.9,0.3,1.3,0.5c0.5,0.1,0.9,0.2,1.4,0.3
				c0.5,0.1,0.9,0.1,1.4,0.2c0.3,0,0.7,0,1,0c0.1,0,0.2,0,0.4,0c0.5,0,0.9,0,1.4-0.1c0.4-0.1,0.9-0.1,1.3-0.2
				c0.4-0.1,0.9-0.2,1.3-0.4c0.4-0.1,0.8-0.3,1.2-0.5c0.4-0.2,0.8-0.4,1.2-0.6s0.8-0.5,1.1-0.7c0.4-0.3,0.7-0.5,1.1-0.8
				c0.3-0.3,0.7-0.6,1-0.9c0.3-0.3,0.6-0.7,0.9-1c0.3-0.3,0.5-0.7,0.8-1.1c0.2-0.4,0.5-0.8,0.7-1.2c0.2-0.4,0.4-0.8,0.6-1.3
				c0.2-0.4,0.3-0.9,0.5-1.3c0.1-0.5,0.2-0.9,0.3-1.4c0.1-0.5,0.1-0.9,0.2-1.4c0-0.5,0-0.9,0-1.4c0-0.5,0-0.9-0.1-1.4
				c-0.1-0.4-0.1-0.9-0.2-1.3c-0.1-0.4-0.2-0.9-0.4-1.3c-0.2-0.5-0.8-0.8-1.3-0.7c-0.5,0.2-0.8,0.8-0.7,1.3c0.1,0.4,0.2,0.7,0.3,1.1
				c0.1,0.4,0.2,0.8,0.2,1.1c0,0.4,0.1,0.8,0.1,1.2c0,0.4,0,0.8,0,1.2c0,0.4-0.1,0.8-0.1,1.2c-0.1,0.4-0.2,0.8-0.3,1.2
				c-0.1,0.4-0.2,0.8-0.4,1.1c-0.1,0.4-0.3,0.7-0.5,1.1c-0.2,0.3-0.4,0.7-0.6,1c-0.2,0.3-0.4,0.6-0.7,0.9c-0.2,0.3-0.5,0.6-0.8,0.9
				c-0.3,0.3-0.5,0.5-0.8,0.8c-0.3,0.2-0.6,0.5-0.9,0.7c-0.3,0.2-0.6,0.4-1,0.6c-0.3,0.2-0.7,0.4-1,0.5c-0.3,0.2-0.7,0.3-1.1,0.4
				c-0.4,0.1-0.7,0.2-1.1,0.3c-0.4,0.1-0.7,0.1-1.1,0.2c-0.4,0-0.8,0.1-1.2,0.1c-0.4,0-0.8,0-1.2,0c-0.4,0-0.8-0.1-1.2-0.1
				c-0.4-0.1-0.8-0.2-1.2-0.3c-0.4-0.1-0.8-0.2-1.1-0.4c-0.4-0.1-0.7-0.3-1.1-0.5c-0.3-0.2-0.7-0.4-1-0.6c-0.3-0.2-0.6-0.4-0.9-0.7
				c-0.3-0.2-0.6-0.5-0.9-0.8c-0.3-0.3-0.5-0.5-0.8-0.8c-0.2-0.3-0.5-0.6-0.7-0.9c-0.2-0.3-0.4-0.6-0.6-1c-0.2-0.3-0.4-0.7-0.5-1
				c-0.2-0.3-0.3-0.7-0.4-1.1c-0.1-0.4-0.2-0.7-0.3-1.1c-0.1-0.4-0.2-0.8-0.2-1.1c0-0.4-0.1-0.8-0.1-1.2c0-0.4,0-0.8,0-1.2
				c0-0.4,0.1-0.8,0.1-1.2c0.1-0.4,0.2-0.8,0.3-1.2c0.1-0.4,0.2-0.8,0.4-1.1c0.1-0.4,0.3-0.7,0.5-1.1c0.2-0.3,0.4-0.7,0.6-1
				c0.2-0.3,0.4-0.6,0.7-0.9c0.2-0.3,0.5-0.6,0.8-0.9c0.3-0.3,0.5-0.5,0.8-0.8c0.3-0.2,0.6-0.5,0.9-0.7c0.3-0.2,0.6-0.4,1-0.6
				c0.3-0.2,0.7-0.4,1-0.5c0.3-0.2,0.7-0.3,1.1-0.4c0.4-0.1,0.7-0.2,1.1-0.3c0.4-0.1,0.8-0.2,1.1-0.2c0.4,0,0.8-0.1,1.2-0.1
				c0.4,0,0.8,0,1.2,0c0.4,0,0.8,0.1,1.2,0.1c0.4,0.1,0.8,0.2,1.2,0.3c0.4,0.1,0.8,0.2,1.1,0.4c0.4,0.1,0.7,0.3,1.1,0.5
				c0.3,0.2,0.7,0.4,1,0.6c0.5,0.3,1.1,0.2,1.4-0.3c0.3-0.5,0.2-1.1-0.3-1.4c-0.4-0.2-0.8-0.5-1.2-0.7c-0.4-0.2-0.8-0.4-1.3-0.6
				c-0.4-0.2-0.9-0.3-1.3-0.5c-0.5-0.1-0.9-0.2-1.4-0.3c-0.5-0.1-0.9-0.1-1.4-0.2c-0.5,0-0.9,0-1.4,0c-0.5,0-0.9,0-1.4,0.1
				c-0.4,0.1-0.9,0.1-1.3,0.2c-0.4,0.1-0.9,0.2-1.3,0.4c-0.4,0.1-0.8,0.3-1.2,0.5c-0.4,0.2-0.8,0.4-1.2,0.6
				c-0.4,0.2-0.8,0.5-1.1,0.7c-0.4,0.3-0.7,0.5-1.1,0.8c-0.3,0.3-0.7,0.6-1,0.9c-0.3,0.3-0.6,0.7-0.9,1c-0.3,0.3-0.5,0.7-0.8,1.1
				c-0.2,0.4-0.5,0.8-0.7,1.2c-0.2,0.4-0.4,0.8-0.6,1.3c-0.2,0.4-0.3,0.9-0.5,1.3c-0.1,0.5-0.2,0.9-0.3,1.4
				c-0.1,0.5-0.1,0.9-0.2,1.4c0,0.5,0,0.9,0,1.4C601.2,14.7,601.2,15.1,601.2,15.6z"/>
		</g>
	</g>
	<g>
		<linearGradient id="SVGID_17_" gradientUnits="userSpaceOnUse" x1="451.0196" y1="201.7093" x2="832.8616" y2="201.7093">
			<stop  offset="0" style="stop-color:#57C3C3"/>
			<stop  offset="0.3488" style="stop-color:#2BB7DD"/>
			<stop  offset="0.7236" style="stop-color:#108FCA"/>
			<stop  offset="1" style="stop-color:#0B70B7"/>
		</linearGradient>
		<path fill="url(#SVGID_17_)" d="M641.9,310.8c-10.4,0-20.9-0.6-30.9-1.7c-27.9,24.7-61.2,42.2-98,51.6c-7.7,2.1-16,3.6-24.3,4.7
			c-4.7,0.4-9.2-3-10.2-8.1c0-0.2,0-0.2,0-0.2c-1.1-5.3,2.6-8.5,5.8-12.4c13.4-15.1,28.8-27.9,38.8-63.5
			c-43.9-24.9-72-63.5-72-106.8C451,99.2,536.5,38,641.9,38S832.9,99,832.9,174.4S747.4,310.8,641.9,310.8z"/>
	</g>
	<g>
		<linearGradient id="SVGID_18_" gradientUnits="userSpaceOnUse" x1="461.8619" y1="305.8439" x2="197.9163" y2="305.8439">
			<stop  offset="0" style="stop-color:#0B70B7"/>
			<stop  offset="0.2764" style="stop-color:#108FCA"/>
			<stop  offset="0.6512" style="stop-color:#2BB7DD"/>
			<stop  offset="1" style="stop-color:#57C3C3"/>
		</linearGradient>
		<path fill="none" stroke="url(#SVGID_18_)" stroke-width="2" stroke-miterlimit="10" d="M198.9,287.4c0-50.9,58.6-92.1,131-92.1
			s131,41.3,131,92.1c0,29.2-19.3,55.3-49.4,72.1c6.9,24,17.4,32.7,26.6,42.9c2.2,2.6,4.7,4.7,3.9,8.3c0,0,0,0,0,0.1
			c-0.7,3.5-3.8,5.8-7,5.5c-5.7-0.7-11.4-1.7-16.7-3.2c-25.3-6.3-48.1-18.1-67.2-34.8c-6.9,0.7-14,1.2-21.2,1.2
			C257.5,379.5,198.9,338.4,198.9,287.4z"/>
	</g>
</g>
</svg>
