<?xml version="1.0" encoding="utf-8"?>
<!-- Generator: Adobe Illustrator 22.1.0, SVG Export Plug-In . SVG Version: 6.00 Build 0)  -->
<svg version="1.1" xmlns="http://www.w3.org/2000/svg" xmlns:xlink="http://www.w3.org/1999/xlink" x="0px" y="0px"
	 viewBox="0 0 200 40" enable-background="new 0 0 200 40" xml:space="preserve">
<g id="Layer_1">
	<g>
		<g opacity="0.2">
			<g>
				<path d="M64,22.9c-0.2,0.5-0.5,0.9-0.8,1.2c-0.3,0.3-0.7,0.6-1.1,0.8c-0.4,0.2-0.8,0.4-1.2,0.5c-0.4,0.1-0.8,0.1-1.2,0.1
					c-0.8,0-1.4-0.2-2.1-0.5c-0.6-0.3-1.2-0.8-1.6-1.3c-0.5-0.5-0.8-1.2-1.1-1.9c-0.3-0.7-0.4-1.5-0.4-2.2c0-0.7,0.1-1.4,0.3-2.1
					c0.2-0.7,0.5-1.3,1-1.9c0.4-0.6,1-1,1.6-1.3c0.6-0.3,1.4-0.5,2.2-0.5c0.4,0,0.8,0,1.2,0.1c0.4,0.1,0.8,0.2,1.2,0.4
					s0.7,0.5,1,0.8c0.3,0.3,0.6,0.7,0.8,1.2l2-1.3c-0.5-1-1.3-1.9-2.4-2.5c-1-0.6-2.3-1-3.8-1c-1.2,0-2.3,0.2-3.3,0.7
					c-1,0.5-1.8,1.1-2.5,1.8c-0.7,0.8-1.2,1.6-1.5,2.6c-0.3,1-0.5,1.9-0.5,2.9c0,1,0.2,2,0.6,3c0.4,1,0.9,1.9,1.6,2.6
					c0.7,0.8,1.5,1.4,2.4,1.9c0.9,0.5,2,0.7,3.1,0.7c0.6,0,1.3-0.1,1.9-0.2c0.7-0.2,1.3-0.4,1.9-0.7c0.6-0.3,1.1-0.7,1.6-1.2
					c0.5-0.5,0.8-1,1.1-1.6L64,22.9z"/>
				<path d="M98.2,15c-0.3-0.6-0.6-1.2-1-1.7c-0.4-0.5-1-0.9-1.6-1.2c-0.6-0.3-1.3-0.5-2-0.5h-6.7v16.1h2.5v-5.6h4.3
					c0.7,0,1.4-0.1,2-0.4c0.6-0.3,1.1-0.7,1.5-1.2c0.4-0.5,0.7-1,1-1.7c0.2-0.6,0.3-1.3,0.3-2C98.6,16.2,98.4,15.6,98.2,15z
					 M95.8,18.1c-0.1,0.4-0.3,0.7-0.5,0.9c-0.2,0.3-0.5,0.5-0.8,0.6c-0.3,0.2-0.6,0.2-1,0.2h-4.2v-6h4c0.3,0,0.7,0.1,1,0.2
					c0.3,0.1,0.6,0.3,0.8,0.6c0.2,0.3,0.4,0.6,0.6,0.9c0.1,0.4,0.2,0.8,0.2,1.2C96,17.3,95.9,17.7,95.8,18.1z"/>
				<path d="M113.6,22.9c-0.2,0.5-0.5,0.9-0.8,1.2c-0.3,0.3-0.7,0.6-1.1,0.8c-0.4,0.2-0.8,0.4-1.2,0.5c-0.4,0.1-0.8,0.1-1.2,0.1
					c-0.8,0-1.4-0.2-2.1-0.5c-0.6-0.3-1.2-0.8-1.6-1.3c-0.5-0.5-0.8-1.2-1.1-1.9c-0.3-0.7-0.4-1.5-0.4-2.2c0-0.7,0.1-1.4,0.3-2.1
					c0.2-0.7,0.5-1.3,1-1.9c0.4-0.6,1-1,1.6-1.3c0.6-0.3,1.4-0.5,2.2-0.5c0.4,0,0.8,0,1.2,0.1c0.4,0.1,0.8,0.2,1.2,0.4
					c0.4,0.2,0.7,0.5,1,0.8c0.3,0.3,0.6,0.7,0.8,1.2l2-1.3c-0.5-1-1.3-1.9-2.4-2.5c-1-0.6-2.3-1-3.8-1c-1.2,0-2.3,0.2-3.3,0.7
					c-1,0.5-1.8,1.1-2.5,1.8c-0.7,0.8-1.2,1.6-1.5,2.6c-0.3,1-0.5,1.9-0.5,2.9c0,1,0.2,2,0.6,3c0.4,1,0.9,1.9,1.6,2.6
					c0.7,0.8,1.5,1.4,2.4,1.9c0.9,0.5,2,0.7,3.1,0.7c0.6,0,1.3-0.1,1.9-0.2c0.7-0.2,1.3-0.4,1.9-0.7c0.6-0.3,1.1-0.7,1.6-1.2
					c0.5-0.5,0.8-1,1.1-1.6L113.6,22.9z"/>
				<path d="M130.4,11.6v6.7h-8.1v-6.7h-2.5v16.1h2.5v-7.1h8.1v7.1h2.6V11.6H130.4z"/>
				<path d="M155.2,11.6v16.1h2.5V11.6H155.2z"/>
				<path d="M174.2,11.7v11.6l-9.2-11.6h-2v16.1h2.5V16.4l9.1,11.3h2.1v-16H174.2z"/>
				<polygon points="76.8,11.6 74.6,11.6 68.2,27.7 70.9,27.7 73.2,21.5 73.2,21.5 75.7,14.6 80.5,27.7 83.2,27.7 				"/>
				<polygon points="145.2,11.6 143,11.6 136.6,27.7 139.3,27.7 141.6,21.5 141.6,21.5 144.1,14.6 148.9,27.7 151.5,27.7 				"/>
				<g>
					
						<text transform="matrix(1 0 0 1 180.7783 27.6944)" font-family="'Raleway-Regular'" font-size="22.6057px" letter-spacing="1">X</text>
				</g>
				<g>
					
						<text transform="matrix(1 0 0 1 183.2891 27.6944)" font-family="'Raleway-Regular'" font-size="22.6057px" letter-spacing="1">X</text>
				</g>
			</g>
			<g>
				<defs>
					<path id="SVGID_120_" d="M42.9,33.3c-0.9,0-1.7,0.5-2.1,1.2H22.9c-0.4-0.7-1.2-1.2-2.1-1.2c0,0,0,0,0,0l-6.6-11.5h3.6
						c0.1,0.2,0.3,0.4,0.5,0.6c0,0,0,0,0.1,0.1c0.2,0.1,0.3,0.3,0.5,0.3c0,0,0.1,0,0.1,0c0.3,0.1,0.5,0.2,0.8,0.2l2.8,4.9
						c-0.1,0.2-0.2,0.4-0.2,0.7l0,0c0,0,0,0,0,0c0,0.1,0,0.2,0,0.3c0,0.1,0,0.2,0,0.3c0,0,0,0,0,0.1l0,0c0.1,0.6,0.4,1.1,0.8,1.5
						c0,0,0,0,0.1,0.1c0.2,0.1,0.3,0.3,0.5,0.3c0,0,0.1,0,0.1,0c0.3,0.1,0.6,0.2,0.9,0.2c0.9,0,1.6-0.4,2.1-1.2h10.1
						c0.1,0.2,0.3,0.4,0.5,0.6c0.2,0.2,0.4,0.3,0.6,0.4c0.3,0.1,0.6,0.2,0.9,0.2c1.2,0,2.2-0.9,2.4-2.1c0-0.1,0-0.3,0-0.4
						c0-0.1,0-0.2,0-0.3c-0.2-1.2-1.2-2.1-2.4-2.1c-0.9,0-1.7,0.5-2.1,1.2h-10c-0.4-0.7-1.2-1.2-2.1-1.2c0,0,0,0-0.1,0l-2.7-4.7l0,0
						c0,0,0,0,0-0.1c0,0,0-0.1,0.1-0.1l0-0.1c0,0,0-0.1,0-0.1c0,0,0-0.1,0-0.1l0-0.1c0,0,0-0.1,0-0.1c0,0,0-0.1,0-0.2l0,0
						c0,0,0,0,0-0.1l0,0c0,0,0,0,0,0c0-0.1,0-0.2,0-0.3l0-0.1c0-0.1,0-0.2,0-0.3c0,0,0,0,0-0.1c0,0,0-0.1,0-0.1l0-0.1
						c0,0,0-0.1,0-0.1c0,0,0-0.1,0-0.1l0-0.1c0,0,0-0.1,0-0.1c0,0,0-0.1,0-0.1l0-0.1c0,0,0-0.1,0-0.1c0,0,0,0,0-0.1l0,0l2.7-4.7
						c0.9,0,1.7-0.5,2.2-1.2h10c0.1,0.3,0.3,0.5,0.6,0.7c0.2,0.2,0.4,0.3,0.6,0.4c0.3,0.1,0.6,0.2,0.9,0.2c1.2,0,2.2-0.9,2.4-2.1
						c0-0.1,0-0.3,0-0.4c0-0.1,0-0.2,0-0.3c-0.2-1.2-1.2-2.1-2.4-2.1c-0.8,0-1.6,0.4-2.1,1.1H26.8c-0.4-0.7-1.2-1.1-2.1-1.1
						c-1.2,0-2.2,0.9-2.4,2l0,0c0,0,0,0,0,0c0,0.1,0,0.2,0,0.3c0,0.1,0,0.2,0,0.3c0,0,0,0,0,0.1l0,0c0,0.2,0.1,0.5,0.2,0.7l-2.8,4.9
						c-0.1,0-0.1,0-0.2,0c0,0-0.1,0-0.1,0c-0.1,0-0.1,0-0.2,0l0,0c0,0,0,0-0.1,0c-0.1,0-0.2,0.1-0.3,0.1c0,0,0,0,0,0
						c-0.1,0-0.2,0.1-0.3,0.1c0,0,0,0,0,0c-0.1,0.1-0.2,0.1-0.3,0.2l0,0c-0.1,0.1-0.1,0.1-0.2,0.2c0,0,0,0,0,0.1l0,0
						c0,0.1-0.1,0.1-0.1,0.2l0,0c0,0,0,0,0,0.1c0,0,0,0.1-0.1,0.1h-3.6l6.7-11.6c0.9,0,1.6-0.4,2.1-1.2h17.9
						c0.4,0.7,1.2,1.2,2.1,1.2c1.3,0,2.4-1.1,2.4-2.4c0-1.3-1.1-2.4-2.4-2.4c-0.9,0-1.7,0.5-2.1,1.2H22.9c-0.4-0.7-1.2-1.2-2.1-1.2
						c-1.2,0-2.2,0.9-2.4,2.1c0,0.1,0,0.2,0,0.3c0,0.1,0,0.3,0,0.4c0,0.3,0.1,0.5,0.3,0.8l-6.7,11.6c0,0,0,0,0,0c0,0-0.1,0-0.1,0
						c0,0-0.1,0-0.1,0l0,0c0,0,0,0-0.1,0l0,0c0,0-0.1,0-0.1,0l0,0c-0.1,0-0.1,0-0.2,0l0,0c0,0,0,0,0,0c0,0,0,0,0,0c0,0,0,0-0.1,0
						l-0.1,0c0,0,0,0,0,0l0,0c0,0-0.1,0-0.1,0.1l0,0c0,0,0,0-0.1,0c0,0-0.1,0-0.1,0l0,0c0,0-0.1,0-0.1,0.1c0,0,0,0,0,0l0,0
						c-0.1,0-0.1,0.1-0.2,0.1l0,0c0,0,0,0,0,0l0,0c0,0,0,0,0,0c0,0-0.1,0.1-0.1,0.1l0,0c0,0,0,0,0,0c0,0-0.1,0.1-0.1,0.1
						c0,0,0,0,0,0l0.2,0.2l0,0l-0.2-0.2l0,0c0,0,0,0,0,0c0,0,0,0,0,0.1l0,0c0,0,0,0,0,0H5.5c-0.2-0.3-0.4-0.6-0.7-0.8
						c-0.2-0.1-0.4-0.2-0.7-0.3c-0.5-0.2-1-0.1-1.5,0c-0.2,0.1-0.4,0.2-0.6,0.3c-0.5,0.4-0.9,1-1,1.6c0,0.1,0,0.2,0,0.3
						c0,0.1,0,0.3,0,0.4c0.1,0.6,0.4,1.1,0.9,1.5c0.2,0.2,0.4,0.3,0.6,0.4C2.8,22.9,3.1,23,3.4,23c0.1,0,0.2,0,0.3,0
						c0.2,0,0.3,0,0.4-0.1c0.1,0,0.2-0.1,0.3-0.1c0.1-0.1,0.3-0.1,0.4-0.2c0.1-0.1,0.2-0.1,0.2-0.2c0.2-0.2,0.4-0.4,0.5-0.6
						c0,0,0,0,0,0h4.2c0,0,0,0,0,0l0,0.1c0,0,0.1,0.1,0.1,0.1l0,0c0,0.1,0.1,0.1,0.1,0.2l0,0c0,0,0.1,0.1,0.1,0.1l0,0c0,0,0,0,0,0
						l0,0c0,0,0.1,0,0.1,0.1c0,0,0,0,0.1,0l0,0c0,0,0,0,0,0c0,0,0,0,0.1,0c0.1,0,0.1,0.1,0.2,0.1c0,0,0,0,0,0c0,0,0,0,0,0l0,0
						c0,0,0,0,0,0c0,0,0,0,0,0l0,0c0,0,0.1,0,0.1,0c0,0,0,0,0,0c0,0,0.1,0,0.1,0c0,0,0.1,0,0.1,0c0,0,0.1,0,0.1,0c0,0,0.1,0,0.1,0
						l0,0c0,0,0.1,0,0.1,0c0,0,0.1,0,0.1,0l0,0c0,0,0.1,0,0.1,0l0,0l6.7,11.6l0,0c-0.1,0.2-0.2,0.5-0.3,0.8c0,0.1,0,0.2,0,0.3
						c0,0.1,0,0.3,0,0.4c0.1,0.6,0.4,1.1,0.9,1.5c0.2,0.2,0.4,0.3,0.6,0.4c0.3,0.1,0.6,0.2,0.9,0.2c0.9,0,1.6-0.4,2.1-1.2h18
						c0.4,0.7,1.2,1.2,2.1,1.2c1.3,0,2.4-1.1,2.4-2.4S44.2,33.3,42.9,33.3z M44.1,35.8c0,0.7-0.5,1.2-1.2,1.2
						c-0.3,0-0.7-0.2-0.9-0.4c-0.1-0.1-0.2-0.3-0.3-0.5l0,0c0-0.1,0-0.2,0-0.3c0-0.1,0-0.2,0-0.2l0,0c0-0.2,0.1-0.3,0.2-0.5
						c0.2-0.3,0.6-0.5,0.9-0.5C43.5,34.6,44.1,35.1,44.1,35.8z M10.7,20.8C10.7,20.8,10.7,20.8,10.7,20.8L10.7,20.8
						c0-0.1,0-0.1,0-0.1c0,0,0-0.1,0-0.1l0,0c0,0,0-0.1,0-0.1c0,0,0-0.1,0-0.1l0,0v0c0-0.1,0-0.1,0-0.2l0,0c0,0,0,0,0,0
						c0,0,0-0.1,0.1-0.1l0,0c0,0,0,0,0,0c0,0,0,0,0,0c0,0,0.1-0.1,0.1-0.1c0,0,0,0,0,0l0,0c0,0,0.1-0.1,0.1-0.1c0,0,0.1,0,0.1-0.1
						c0,0,0,0,0,0c0,0,0,0,0,0c0,0,0.1,0,0.1-0.1c0,0,0,0,0,0c0,0,0,0,0,0c0,0,0.1,0,0.1,0c0,0,0,0,0,0l0,0c0,0,0,0,0,0
						c0,0,0.1,0,0.1,0c0.1,0,0.2,0,0.4,0l0,0c0.1,0,0.1,0,0.2,0l0,0c0,0,0,0,0,0c0,0,0.1,0,0.1,0l0,0c0,0,0,0,0,0l0,0
						c0,0,0.1,0,0.1,0.1c0,0,0.1,0.1,0.1,0.1c0,0,0.1,0.1,0.1,0.1l0,0c0,0,0,0.1,0.1,0.1l0,0c0,0,0,0.1,0,0.1l0,0c0,0,0,0.1,0,0.1
						l0,0c0,0,0,0.1,0,0.1l0,0c0,0.1,0,0.1,0,0.2l0,0c0,0,0,0,0,0.1l0,0c0,0,0,0.1,0,0.1l0,0c0,0,0,0,0,0l0,0c0,0,0,0.1,0,0.1l0,0.1
						c0,0,0,0,0,0.1l0,0c0,0,0,0,0,0c0,0,0,0,0,0.1c0,0,0,0,0,0c0,0,0,0-0.1,0.1c0,0,0,0,0,0c0,0,0,0-0.1,0.1l0,0
						c0,0-0.1,0.1-0.1,0.1c0,0,0,0-0.1,0l0,0c0,0,0,0,0,0c0,0,0,0-0.1,0l0,0c0,0,0,0-0.1,0c0,0,0,0-0.1,0c-0.1,0-0.1,0-0.1,0
						c-0.1,0-0.1,0-0.1,0l0,0c-0.1,0-0.2,0-0.3,0l0,0c-0.1,0-0.1,0-0.2,0c-0.1,0-0.1,0-0.2-0.1l0,0c-0.1,0-0.1-0.1-0.1-0.1
						c0,0-0.1,0-0.1-0.1l0,0c0,0-0.1-0.1-0.1-0.1l0,0c0,0,0,0,0,0l0,0c0,0,0,0,0-0.1c0,0,0,0,0-0.1c0,0,0-0.1,0-0.1l0,0c0,0,0,0,0,0
						C10.7,20.9,10.7,20.9,10.7,20.8L10.7,20.8z M19.8,6c0-0.1-0.1-0.1-0.1-0.2l0,0c0,0,0-0.1,0-0.1c0-0.1,0-0.2,0-0.3
						c0-0.1,0-0.2,0-0.2c0.1-0.6,0.6-1,1.2-1c0.4,0,0.7,0.2,0.9,0.5c0.1,0.1,0.2,0.3,0.2,0.5c0,0.1,0,0.2,0,0.2c0,0.1,0,0.2,0,0.3
						c0,0.2-0.1,0.4-0.3,0.5c-0.2,0.2-0.5,0.4-0.7,0.4c-0.2,0-0.4,0-0.6-0.1c0,0-0.1,0-0.1,0C20.2,6.4,20,6.3,20,6.2
						C19.9,6.1,19.8,6.1,19.8,6z M22.2,36.1L22.2,36.1L21.9,36c0,0.2-0.1,0.4-0.3,0.5c-0.2,0.3-0.6,0.4-0.9,0.4
						c-0.1,0-0.3,0-0.4-0.1c-0.2-0.1-0.3-0.1-0.4-0.3c-0.2-0.2-0.3-0.4-0.3-0.6c0-0.1,0-0.2,0-0.3c0-0.1,0-0.2,0-0.2
						c0,0,0-0.1,0-0.1c0-0.1,0.1-0.3,0.2-0.4c0,0,0.1-0.1,0.1-0.1c0.1-0.1,0.3-0.2,0.4-0.3c0.1,0,0.3-0.1,0.4-0.1c0,0,0.1,0,0.1,0
						c0.3,0,0.6,0.2,0.8,0.5c0.1,0.1,0.2,0.3,0.2,0.5l0,0c0,0.1,0,0.1,0,0.2c0,0.1,0,0.2,0,0.3L22.2,36.1L22.2,36.1L22.2,36.1z
						 M20.3,19.5C20.3,19.5,20.4,19.5,20.3,19.5c0.1,0,0.1,0,0.1,0.1l0,0c0,0,0.1,0.1,0.1,0.1l0,0c0,0,0,0,0.1,0.1l0,0c0,0,0,0,0,0
						c0,0,0,0,0,0l0,0c0,0,0,0,0,0c0,0,0.1,0.1,0.1,0.1c0,0,0,0,0,0l0,0c0,0,0,0,0,0.1c0,0,0,0.1,0,0.1l0,0c0,0,0,0.1,0,0.1l0,0
						c0,0,0,0.1,0,0.1l0,0l0,0.1v0c0,0,0,0,0,0c0,0.1,0,0.1,0,0.2l0,0c0,0,0,0,0,0l0,0c0,0.1,0,0.2-0.1,0.2c0,0,0,0,0,0l0,0
						c0,0,0,0.1-0.1,0.1l0,0c0,0,0,0,0,0c0,0,0,0,0,0l0,0c0,0,0,0,0,0c0,0,0,0,0,0l0,0c0,0,0,0,0,0c0,0,0,0,0,0l0,0
						c0,0-0.1,0.1-0.1,0.1l0,0c0,0,0,0,0,0c0,0-0.1,0-0.1,0c0,0,0,0,0,0l0,0c0,0-0.1,0-0.1,0c0,0-0.1,0-0.1,0l0,0c0,0-0.1,0-0.1,0
						c-0.1,0-0.2,0-0.3,0l0,0c-0.1,0-0.1,0-0.2,0l0,0c-0.1-0.1-0.3-0.1-0.4-0.2c0,0,0,0,0,0l0,0c0,0,0,0-0.1-0.1
						c-0.1-0.1-0.2-0.3-0.2-0.5l0,0c0,0,0-0.1,0-0.1c0,0,0-0.1,0-0.1c0-0.1,0-0.2,0-0.2l0,0c0,0,0-0.1,0-0.1c0,0,0,0,0,0
						c0,0,0-0.1,0.1-0.1c0-0.1,0.1-0.1,0.1-0.2c0,0,0,0,0,0l0,0c0,0,0.1-0.1,0.1-0.1c0,0,0,0,0,0c0,0,0.1-0.1,0.1-0.1c0,0,0,0,0,0
						c0,0,0.1,0,0.1-0.1l0,0c0,0,0,0,0,0c0,0,0.1,0,0.1,0c0,0,0,0,0.1,0c0,0,0,0,0.1,0l0,0c0,0,0,0,0,0c0,0,0,0,0.1,0l0,0
						c0,0,0.1,0,0.1,0c0,0,0.1,0,0.1,0l0,0c0,0,0.1,0,0.1,0C20.2,19.4,20.2,19.4,20.3,19.5L20.3,19.5C20.3,19.5,20.3,19.5,20.3,19.5
						z M23.6,28.7c0.1-0.2,0.2-0.4,0.3-0.5c0.1-0.1,0.3-0.2,0.4-0.3c0.1-0.1,0.3-0.1,0.4-0.1c0,0,0.1,0,0.1,0c0.3,0,0.6,0.2,0.8,0.5
						c0.1,0.1,0.2,0.3,0.2,0.5c0,0,0,0,0,0l0,0c0,0.1,0,0.1,0,0.2c0,0,0,0.1,0,0.1c0,0,0,0.1,0,0.1l0,0l0,0l0,0
						c0,0.2-0.1,0.4-0.3,0.5c-0.2,0.3-0.6,0.4-0.9,0.4c-0.1,0-0.3,0-0.4-0.1c0,0,0,0,0,0l0,0c-0.1-0.1-0.3-0.1-0.4-0.2c0,0,0,0,0,0
						c-0.2-0.2-0.3-0.4-0.3-0.6c0,0,0,0,0,0l0,0c0-0.1,0-0.1,0-0.2C23.5,28.9,23.5,28.8,23.6,28.7L23.6,28.7
						C23.6,28.8,23.6,28.7,23.6,28.7C23.6,28.7,23.6,28.7,23.6,28.7z M23.5,12.2c0-0.1,0-0.2,0-0.2l0,0c0,0,0,0,0,0
						c0.1-0.5,0.6-0.9,1.2-0.9c0.3,0,0.7,0.1,0.9,0.4c0.1,0.1,0.2,0.3,0.3,0.5c0,0,0,0,0,0c0,0.1,0,0.2,0,0.2c0,0.1,0,0.1,0,0.2l0,0
						c0,0,0,0,0,0c0,0.2-0.1,0.3-0.2,0.5c-0.2,0.3-0.5,0.4-0.9,0.5c-0.2,0-0.3,0-0.5-0.1c0,0,0,0,0,0l0,0c-0.1,0-0.2-0.1-0.3-0.2
						c0,0-0.1,0-0.1-0.1c0,0,0,0,0,0c-0.1-0.1-0.2-0.3-0.3-0.5l0,0c0,0,0,0,0-0.1l0,0l0,0C23.5,12.3,23.5,12.2,23.5,12.2z M37.7,29
						c0-0.1,0-0.1,0-0.2l0,0c0,0,0,0,0,0c0-0.2,0.1-0.3,0.2-0.5c0.2-0.3,0.6-0.5,0.9-0.5c0.6,0,1.1,0.4,1.2,1c0,0.1,0,0.2,0,0.2
						c0,0.1,0,0.2,0,0.3c-0.1,0.5-0.6,0.9-1.2,0.9c-0.1,0-0.3,0-0.4-0.1c-0.2-0.1-0.3-0.1-0.4-0.3c0,0-0.1-0.1-0.1-0.1
						c-0.1-0.1-0.2-0.3-0.3-0.5l0,0l0,0l0,0c0,0,0-0.1,0-0.1C37.7,29.1,37.7,29,37.7,29z M37.7,12.2c0-0.1,0-0.2,0-0.2c0,0,0,0,0,0
						c0-0.2,0.1-0.4,0.3-0.5c0.2-0.3,0.6-0.4,0.9-0.4c0.6,0,1.1,0.4,1.2,1c0,0.1,0,0.2,0,0.2c0,0.1,0,0.2,0,0.3
						c-0.1,0.5-0.6,0.9-1.2,0.9c-0.1,0-0.3,0-0.4-0.1c-0.2-0.1-0.3-0.1-0.4-0.3c0,0-0.1-0.1-0.1-0.1c-0.1-0.1-0.2-0.3-0.2-0.5
						c0,0,0,0,0,0l0,0C37.7,12.3,37.7,12.2,37.7,12.2z M41.7,5.3c0-0.1,0-0.2,0-0.2c0-0.2,0.1-0.4,0.2-0.5c0.2-0.3,0.6-0.5,0.9-0.5
						c0.7,0,1.2,0.5,1.2,1.2c0,0.7-0.5,1.2-1.2,1.2c-0.4,0-0.7-0.2-0.9-0.4c-0.1-0.1-0.2-0.3-0.3-0.5C41.7,5.5,41.7,5.4,41.7,5.3z
						 M4.6,20.6c0,0.1,0,0.2,0,0.3l0,0v0c0,0,0,0,0,0c0,0.2-0.1,0.3-0.2,0.4c0,0,0,0-0.1,0.1c0,0.1-0.1,0.1-0.2,0.1
						C4,21.6,4,21.6,3.9,21.7c-0.1,0-0.1,0-0.2,0.1c-0.1,0-0.2,0-0.3,0c-0.1,0-0.2,0-0.3-0.1c-0.2-0.1-0.3-0.1-0.4-0.3
						c-0.2-0.2-0.3-0.4-0.3-0.6l0,0c0-0.1,0-0.2,0-0.2c0-0.1,0-0.2,0-0.2l0,0v0c0.1-0.3,0.2-0.5,0.4-0.7c0.1-0.1,0.3-0.2,0.5-0.2
						c0.2,0,0.4-0.1,0.5,0c0.2,0,0.3,0.1,0.5,0.2c0.1,0.1,0.2,0.1,0.2,0.2c0.1,0.1,0.2,0.3,0.2,0.5l0,0C4.6,20.4,4.6,20.5,4.6,20.6z
						"/>
				</defs>
				<use xlink:href="#SVGID_120_"  overflow="visible"/>
				<clipPath id="SVGID_1_">
					<use xlink:href="#SVGID_120_"  overflow="visible"/>
				</clipPath>
				<rect x="0.3" y="2.6" clip-path="url(#SVGID_1_)" width="45.3" height="36.4"/>
			</g>
		</g>
		<g>
			<g>
				<path fill="#FFFFFF" d="M64,21.8c-0.2,0.5-0.5,0.9-0.8,1.2c-0.3,0.3-0.7,0.6-1.1,0.8c-0.4,0.2-0.8,0.4-1.2,0.5
					c-0.4,0.1-0.8,0.1-1.2,0.1c-0.8,0-1.4-0.2-2.1-0.5c-0.6-0.3-1.2-0.8-1.6-1.3c-0.5-0.5-0.8-1.2-1.1-1.9c-0.3-0.7-0.4-1.5-0.4-2.2
					c0-0.7,0.1-1.4,0.3-2.1c0.2-0.7,0.5-1.3,1-1.9c0.4-0.6,1-1,1.6-1.3c0.6-0.3,1.4-0.5,2.2-0.5c0.4,0,0.8,0,1.2,0.1
					c0.4,0.1,0.8,0.2,1.2,0.4s0.7,0.5,1,0.8c0.3,0.3,0.6,0.7,0.8,1.2l2-1.3c-0.5-1-1.3-1.9-2.4-2.5c-1-0.6-2.3-1-3.8-1
					c-1.2,0-2.3,0.2-3.3,0.7c-1,0.5-1.8,1.1-2.5,1.8c-0.7,0.8-1.2,1.6-1.5,2.6c-0.3,1-0.5,1.9-0.5,2.9c0,1,0.2,2,0.6,3
					c0.4,1,0.9,1.9,1.6,2.6c0.7,0.8,1.5,1.4,2.4,1.9c0.9,0.5,2,0.7,3.1,0.7c0.6,0,1.3-0.1,1.9-0.2c0.7-0.2,1.3-0.4,1.9-0.7
					c0.6-0.3,1.1-0.7,1.6-1.2c0.5-0.5,0.8-1,1.1-1.6L64,21.8z"/>
				<path fill="#FFFFFF" d="M98.2,13.9c-0.3-0.6-0.6-1.2-1-1.7c-0.4-0.5-1-0.9-1.6-1.2c-0.6-0.3-1.3-0.5-2-0.5h-6.7v16.1h2.5V21h4.3
					c0.7,0,1.4-0.1,2-0.4c0.6-0.3,1.1-0.7,1.5-1.2c0.4-0.5,0.7-1,1-1.7c0.2-0.6,0.3-1.3,0.3-2C98.6,15.1,98.4,14.5,98.2,13.9z
					 M95.8,17c-0.1,0.4-0.3,0.7-0.5,0.9c-0.2,0.3-0.5,0.5-0.8,0.6c-0.3,0.2-0.6,0.2-1,0.2h-4.2v-6h4c0.3,0,0.7,0.1,1,0.2
					c0.3,0.1,0.6,0.3,0.8,0.6c0.2,0.3,0.4,0.6,0.6,0.9c0.1,0.4,0.2,0.8,0.2,1.2C96,16.2,95.9,16.6,95.8,17z"/>
				<path fill="#FFFFFF" d="M113.6,21.8c-0.2,0.5-0.5,0.9-0.8,1.2c-0.3,0.3-0.7,0.6-1.1,0.8c-0.4,0.2-0.8,0.4-1.2,0.5
					c-0.4,0.1-0.8,0.1-1.2,0.1c-0.8,0-1.4-0.2-2.1-0.5c-0.6-0.3-1.2-0.8-1.6-1.3c-0.5-0.5-0.8-1.2-1.1-1.9c-0.3-0.7-0.4-1.5-0.4-2.2
					c0-0.7,0.1-1.4,0.3-2.1c0.2-0.7,0.5-1.3,1-1.9c0.4-0.6,1-1,1.6-1.3c0.6-0.3,1.4-0.5,2.2-0.5c0.4,0,0.8,0,1.2,0.1
					c0.4,0.1,0.8,0.2,1.2,0.4c0.4,0.2,0.7,0.5,1,0.8c0.3,0.3,0.6,0.7,0.8,1.2l2-1.3c-0.5-1-1.3-1.9-2.4-2.5c-1-0.6-2.3-1-3.8-1
					c-1.2,0-2.3,0.2-3.3,0.7c-1,0.5-1.8,1.1-2.5,1.8c-0.7,0.8-1.2,1.6-1.5,2.6c-0.3,1-0.5,1.9-0.5,2.9c0,1,0.2,2,0.6,3
					c0.4,1,0.9,1.9,1.6,2.6c0.7,0.8,1.5,1.4,2.4,1.9c0.9,0.5,2,0.7,3.1,0.7c0.6,0,1.3-0.1,1.9-0.2c0.7-0.2,1.3-0.4,1.9-0.7
					c0.6-0.3,1.1-0.7,1.6-1.2c0.5-0.5,0.8-1,1.1-1.6L113.6,21.8z"/>
				<path fill="#FFFFFF" d="M130.4,10.5v6.7h-8.1v-6.7h-2.5v16.1h2.5v-7.1h8.1v7.1h2.6V10.5H130.4z"/>
				<path fill="#FFFFFF" d="M155.2,10.5v16.1h2.5V10.5H155.2z"/>
				<path fill="#FFFFFF" d="M174.2,10.6v11.6l-9.2-11.6h-2v16.1h2.5V15.3l9.1,11.3h2.1v-16H174.2z"/>
				<polygon fill="#FFFFFF" points="76.8,10.5 74.6,10.5 68.2,26.6 70.9,26.6 73.2,20.4 73.2,20.4 75.7,13.5 80.5,26.6 83.2,26.6 
									"/>
				<polygon fill="#FFFFFF" points="145.2,10.5 143,10.5 136.6,26.6 139.3,26.6 141.6,20.4 141.6,20.4 144.1,13.5 148.9,26.6 
					151.5,26.6 				"/>
				<path fill="#22C9EF" d="M197.5,10.5h-1.7l-5.3,7L190,17l4.9-6.5h-1.7l-4,5.3l-4-5.3h-1.8l4.9,6.5l-0.4,0.5l-5.3-7h-1.8l6.2,8.1
					l-6,7.9h1.8l5.1-6.8l0.4,0.5l-4.7,6.3h1.8l3.8-5.1l3.8,5.1h1.7l-4.7-6.2l0.4-0.5l5.1,6.8h1.7l-6-7.9L197.5,10.5z M188.8,18.7
					l0.4-0.5l0.4,0.5l-0.4,0.5L188.8,18.7z"/>
			</g>
			<g>
				<defs>
					<path id="SVGID_122_" d="M42.9,32.2c-0.9,0-1.7,0.5-2.1,1.2H22.9c-0.4-0.7-1.2-1.2-2.1-1.2c0,0,0,0,0,0l-6.6-11.5h3.6
						c0.1,0.2,0.3,0.4,0.5,0.6c0,0,0,0,0.1,0.1c0.2,0.1,0.3,0.3,0.5,0.3c0,0,0.1,0,0.1,0c0.3,0.1,0.5,0.2,0.8,0.2l2.8,4.9
						c-0.1,0.2-0.2,0.4-0.2,0.7l0,0c0,0,0,0,0,0c0,0.1,0,0.2,0,0.3c0,0.1,0,0.2,0,0.3c0,0,0,0,0,0.1l0,0c0.1,0.6,0.4,1.1,0.8,1.5
						c0,0,0,0,0.1,0.1c0.2,0.1,0.3,0.3,0.5,0.3c0,0,0.1,0,0.1,0c0.3,0.1,0.6,0.2,0.9,0.2c0.9,0,1.6-0.4,2.1-1.2h10.1
						c0.1,0.2,0.3,0.4,0.5,0.6c0.2,0.2,0.4,0.3,0.6,0.4c0.3,0.1,0.6,0.2,0.9,0.2c1.2,0,2.2-0.9,2.4-2.1c0-0.1,0-0.3,0-0.4
						c0-0.1,0-0.2,0-0.3c-0.2-1.2-1.2-2.1-2.4-2.1c-0.9,0-1.7,0.5-2.1,1.2h-10c-0.4-0.7-1.2-1.2-2.1-1.2c0,0,0,0-0.1,0l-2.7-4.7l0,0
						c0,0,0,0,0-0.1c0,0,0-0.1,0.1-0.1l0-0.1c0,0,0-0.1,0-0.1c0,0,0-0.1,0-0.1l0-0.1c0,0,0-0.1,0-0.1c0,0,0-0.1,0-0.2l0,0
						c0,0,0,0,0-0.1l0,0c0,0,0,0,0,0c0-0.1,0-0.2,0-0.3l0-0.1c0-0.1,0-0.2,0-0.3c0,0,0,0,0-0.1c0,0,0-0.1,0-0.1l0-0.1
						c0,0,0-0.1,0-0.1c0,0,0-0.1,0-0.1l0-0.1c0,0,0-0.1,0-0.1c0,0,0-0.1,0-0.1l0-0.1c0,0,0-0.1,0-0.1c0,0,0,0,0-0.1l0,0l2.7-4.7
						c0.9,0,1.7-0.5,2.2-1.2h10c0.1,0.3,0.3,0.5,0.6,0.7c0.2,0.2,0.4,0.3,0.6,0.4c0.3,0.1,0.6,0.2,0.9,0.2c1.2,0,2.2-0.9,2.4-2.1
						c0-0.1,0-0.3,0-0.4c0-0.1,0-0.2,0-0.3c-0.2-1.2-1.2-2.1-2.4-2.1c-0.8,0-1.6,0.4-2.1,1.1H26.8c-0.4-0.7-1.2-1.1-2.1-1.1
						c-1.2,0-2.2,0.9-2.4,2l0,0c0,0,0,0,0,0c0,0.1,0,0.2,0,0.3c0,0.1,0,0.2,0,0.3c0,0,0,0,0,0.1l0,0c0,0.2,0.1,0.5,0.2,0.7L19.7,17
						c-0.1,0-0.1,0-0.2,0c0,0-0.1,0-0.1,0c-0.1,0-0.1,0-0.2,0l0,0c0,0,0,0-0.1,0c-0.1,0-0.2,0.1-0.3,0.1c0,0,0,0,0,0
						c-0.1,0-0.2,0.1-0.3,0.1c0,0,0,0,0,0c-0.1,0.1-0.2,0.1-0.3,0.2l0,0c-0.1,0.1-0.1,0.1-0.2,0.2c0,0,0,0,0,0.1l0,0
						c0,0.1-0.1,0.1-0.1,0.2l0,0c0,0,0,0,0,0.1c0,0,0,0.1-0.1,0.1h-3.6l6.7-11.6c0.9,0,1.6-0.4,2.1-1.2h17.9
						c0.4,0.7,1.2,1.2,2.1,1.2c1.3,0,2.4-1.1,2.4-2.4c0-1.3-1.1-2.4-2.4-2.4c-0.9,0-1.7,0.5-2.1,1.2H22.9c-0.4-0.7-1.2-1.2-2.1-1.2
						c-1.2,0-2.2,0.9-2.4,2.1c0,0.1,0,0.2,0,0.3c0,0.1,0,0.3,0,0.4c0,0.3,0.1,0.5,0.3,0.8L11.9,17c0,0,0,0,0,0c0,0-0.1,0-0.1,0
						c0,0-0.1,0-0.1,0l0,0c0,0,0,0-0.1,0l0,0c0,0-0.1,0-0.1,0l0,0c-0.1,0-0.1,0-0.2,0l0,0c0,0,0,0,0,0c0,0,0,0,0,0c0,0,0,0-0.1,0
						l-0.1,0c0,0,0,0,0,0l0,0c0,0-0.1,0-0.1,0.1l0,0c0,0,0,0-0.1,0c0,0-0.1,0-0.1,0l0,0c0,0-0.1,0-0.1,0.1c0,0,0,0,0,0l0,0
						c-0.1,0-0.1,0.1-0.2,0.1l0,0c0,0,0,0,0,0l0,0c0,0,0,0,0,0c0,0-0.1,0.1-0.1,0.1l0,0c0,0,0,0,0,0c0,0-0.1,0.1-0.1,0.1
						c0,0,0,0,0,0l0.2,0.2l0,0L9.9,18l0,0c0,0,0,0,0,0c0,0,0,0,0,0.1l0,0c0,0,0,0,0,0H5.5c-0.2-0.3-0.4-0.6-0.7-0.8
						c-0.2-0.1-0.4-0.2-0.7-0.3c-0.5-0.2-1-0.1-1.5,0c-0.2,0.1-0.4,0.2-0.6,0.3c-0.5,0.4-0.9,1-1,1.6c0,0.1,0,0.2,0,0.3
						c0,0.1,0,0.3,0,0.4c0.1,0.6,0.4,1.1,0.9,1.5c0.2,0.2,0.4,0.3,0.6,0.4c0.3,0.1,0.6,0.2,0.9,0.2c0.1,0,0.2,0,0.3,0
						c0.2,0,0.3,0,0.4-0.1c0.1,0,0.2-0.1,0.3-0.1c0.1-0.1,0.3-0.1,0.4-0.2c0.1-0.1,0.2-0.1,0.2-0.2c0.2-0.2,0.4-0.4,0.5-0.6
						c0,0,0,0,0,0h4.2c0,0,0,0,0,0l0,0.1c0,0,0.1,0.1,0.1,0.1l0,0c0,0.1,0.1,0.1,0.1,0.2l0,0c0,0,0.1,0.1,0.1,0.1l0,0c0,0,0,0,0,0
						l0,0c0,0,0.1,0,0.1,0.1c0,0,0,0,0.1,0l0,0c0,0,0,0,0,0c0,0,0,0,0.1,0c0.1,0,0.1,0.1,0.2,0.1c0,0,0,0,0,0c0,0,0,0,0,0l0,0
						c0,0,0,0,0,0c0,0,0,0,0,0l0,0c0,0,0.1,0,0.1,0c0,0,0,0,0,0c0,0,0.1,0,0.1,0c0,0,0.1,0,0.1,0c0,0,0.1,0,0.1,0c0,0,0.1,0,0.1,0
						l0,0c0,0,0.1,0,0.1,0c0,0,0.1,0,0.1,0l0,0c0,0,0.1,0,0.1,0l0,0l6.7,11.6l0,0c-0.1,0.2-0.2,0.5-0.3,0.8c0,0.1,0,0.2,0,0.3
						c0,0.1,0,0.3,0,0.4c0.1,0.6,0.4,1.1,0.9,1.5c0.2,0.2,0.4,0.3,0.6,0.4c0.3,0.1,0.6,0.2,0.9,0.2c0.9,0,1.6-0.4,2.1-1.2h18
						c0.4,0.7,1.2,1.2,2.1,1.2c1.3,0,2.4-1.1,2.4-2.4S44.2,32.2,42.9,32.2z M44.1,34.7c0,0.7-0.5,1.2-1.2,1.2
						c-0.3,0-0.7-0.2-0.9-0.4c-0.1-0.1-0.2-0.3-0.3-0.5l0,0c0-0.1,0-0.2,0-0.3c0-0.1,0-0.2,0-0.2l0,0c0-0.2,0.1-0.3,0.2-0.5
						c0.2-0.3,0.6-0.5,0.9-0.5C43.5,33.5,44.1,34,44.1,34.7z M10.7,19.7C10.7,19.7,10.7,19.7,10.7,19.7L10.7,19.7c0-0.1,0-0.1,0-0.1
						c0,0,0-0.1,0-0.1l0,0c0,0,0-0.1,0-0.1c0,0,0-0.1,0-0.1l0,0v0c0-0.1,0-0.1,0-0.2l0,0c0,0,0,0,0,0c0,0,0-0.1,0.1-0.1l0,0
						c0,0,0,0,0,0c0,0,0,0,0,0c0,0,0.1-0.1,0.1-0.1c0,0,0,0,0,0l0,0c0,0,0.1-0.1,0.1-0.1c0,0,0.1,0,0.1-0.1c0,0,0,0,0,0c0,0,0,0,0,0
						c0,0,0.1,0,0.1-0.1c0,0,0,0,0,0c0,0,0,0,0,0c0,0,0.1,0,0.1,0c0,0,0,0,0,0l0,0c0,0,0,0,0,0c0,0,0.1,0,0.1,0c0.1,0,0.2,0,0.4,0
						l0,0c0.1,0,0.1,0,0.2,0l0,0c0,0,0,0,0,0c0,0,0.1,0,0.1,0l0,0c0,0,0,0,0,0l0,0c0,0,0.1,0,0.1,0.1c0,0,0.1,0.1,0.1,0.1
						c0,0,0.1,0.1,0.1,0.1l0,0c0,0,0,0.1,0.1,0.1l0,0c0,0,0,0.1,0,0.1l0,0c0,0,0,0.1,0,0.1l0,0c0,0,0,0.1,0,0.1l0,0
						c0,0.1,0,0.1,0,0.2l0,0c0,0,0,0,0,0.1l0,0c0,0,0,0.1,0,0.1l0,0c0,0,0,0,0,0l0,0c0,0,0,0.1,0,0.1l0,0.1c0,0,0,0,0,0.1l0,0
						c0,0,0,0,0,0c0,0,0,0,0,0.1c0,0,0,0,0,0c0,0,0,0-0.1,0.1c0,0,0,0,0,0c0,0,0,0-0.1,0.1l0,0c0,0-0.1,0.1-0.1,0.1c0,0,0,0-0.1,0
						l0,0c0,0,0,0,0,0c0,0,0,0-0.1,0l0,0c0,0,0,0-0.1,0c0,0,0,0-0.1,0c-0.1,0-0.1,0-0.1,0c-0.1,0-0.1,0-0.1,0l0,0
						c-0.1,0-0.2,0-0.3,0l0,0c-0.1,0-0.1,0-0.2,0c-0.1,0-0.1,0-0.2-0.1l0,0c-0.1,0-0.1-0.1-0.1-0.1c0,0-0.1,0-0.1-0.1l0,0
						c0,0-0.1-0.1-0.1-0.1l0,0c0,0,0,0,0,0l0,0c0,0,0,0,0-0.1c0,0,0,0,0-0.1c0,0,0-0.1,0-0.1l0,0c0,0,0,0,0,0
						C10.7,19.8,10.7,19.8,10.7,19.7L10.7,19.7z M19.8,4.9c0-0.1-0.1-0.1-0.1-0.2l0,0c0,0,0-0.1,0-0.1c0-0.1,0-0.2,0-0.3
						c0-0.1,0-0.2,0-0.2c0.1-0.6,0.6-1,1.2-1c0.4,0,0.7,0.2,0.9,0.5c0.1,0.1,0.2,0.3,0.2,0.5c0,0.1,0,0.2,0,0.2c0,0.1,0,0.2,0,0.3
						c0,0.2-0.1,0.4-0.3,0.5c-0.2,0.2-0.5,0.4-0.7,0.4c-0.2,0-0.4,0-0.6-0.1c0,0-0.1,0-0.1,0C20.2,5.3,20,5.2,20,5.1
						C19.9,5,19.8,5,19.8,4.9z M22.2,35L22.2,35l-0.3-0.1c0,0.2-0.1,0.4-0.3,0.5c-0.2,0.3-0.6,0.4-0.9,0.4c-0.1,0-0.3,0-0.4-0.1
						c-0.2-0.1-0.3-0.1-0.4-0.3c-0.2-0.2-0.3-0.4-0.3-0.6c0-0.1,0-0.2,0-0.3c0-0.1,0-0.2,0-0.2c0,0,0-0.1,0-0.1
						c0-0.1,0.1-0.3,0.2-0.4c0,0,0.1-0.1,0.1-0.1c0.1-0.1,0.3-0.2,0.4-0.3c0.1,0,0.3-0.1,0.4-0.1c0,0,0.1,0,0.1,0
						c0.3,0,0.6,0.2,0.8,0.5c0.1,0.1,0.2,0.3,0.2,0.5l0,0c0,0.1,0,0.1,0,0.2c0,0.1,0,0.2,0,0.3L22.2,35L22.2,35L22.2,35z M20.3,18.4
						C20.3,18.4,20.4,18.4,20.3,18.4c0.1,0,0.1,0,0.1,0.1l0,0c0,0,0.1,0.1,0.1,0.1l0,0c0,0,0,0,0.1,0.1l0,0c0,0,0,0,0,0c0,0,0,0,0,0
						l0,0c0,0,0,0,0,0c0,0,0.1,0.1,0.1,0.1c0,0,0,0,0,0l0,0c0,0,0,0,0,0.1c0,0,0,0.1,0,0.1l0,0c0,0,0,0.1,0,0.1l0,0c0,0,0,0.1,0,0.1
						l0,0l0,0.1v0c0,0,0,0,0,0c0,0.1,0,0.1,0,0.2l0,0c0,0,0,0,0,0l0,0c0,0.1,0,0.2-0.1,0.2c0,0,0,0,0,0l0,0c0,0,0,0.1-0.1,0.1l0,0
						c0,0,0,0,0,0c0,0,0,0,0,0l0,0c0,0,0,0,0,0c0,0,0,0,0,0l0,0c0,0,0,0,0,0c0,0,0,0,0,0l0,0c0,0-0.1,0.1-0.1,0.1l0,0c0,0,0,0,0,0
						c0,0-0.1,0-0.1,0c0,0,0,0,0,0l0,0c0,0-0.1,0-0.1,0c0,0-0.1,0-0.1,0l0,0c0,0-0.1,0-0.1,0c-0.1,0-0.2,0-0.3,0l0,0
						c-0.1,0-0.1,0-0.2,0l0,0c-0.1-0.1-0.3-0.1-0.4-0.2c0,0,0,0,0,0l0,0c0,0,0,0-0.1-0.1c-0.1-0.1-0.2-0.3-0.2-0.5l0,0
						c0,0,0-0.1,0-0.1c0,0,0-0.1,0-0.1c0-0.1,0-0.2,0-0.2l0,0c0,0,0-0.1,0-0.1c0,0,0,0,0,0c0,0,0-0.1,0.1-0.1c0-0.1,0.1-0.1,0.1-0.2
						c0,0,0,0,0,0l0,0c0,0,0.1-0.1,0.1-0.1c0,0,0,0,0,0c0,0,0.1-0.1,0.1-0.1c0,0,0,0,0,0c0,0,0.1,0,0.1-0.1l0,0c0,0,0,0,0,0
						c0,0,0.1,0,0.1,0c0,0,0,0,0.1,0c0,0,0,0,0.1,0l0,0c0,0,0,0,0,0c0,0,0,0,0.1,0l0,0c0,0,0.1,0,0.1,0c0,0,0.1,0,0.1,0l0,0
						c0,0,0.1,0,0.1,0C20.2,18.3,20.2,18.3,20.3,18.4L20.3,18.4C20.3,18.4,20.3,18.4,20.3,18.4z M23.6,27.6c0.1-0.2,0.2-0.4,0.3-0.5
						c0.1-0.1,0.3-0.2,0.4-0.3c0.1-0.1,0.3-0.1,0.4-0.1c0,0,0.1,0,0.1,0c0.3,0,0.6,0.2,0.8,0.5c0.1,0.1,0.2,0.3,0.2,0.5c0,0,0,0,0,0
						l0,0c0,0.1,0,0.1,0,0.2c0,0,0,0.1,0,0.1c0,0,0,0.1,0,0.1l0,0l0,0l0,0c0,0.2-0.1,0.4-0.3,0.5c-0.2,0.3-0.6,0.4-0.9,0.4
						c-0.1,0-0.3,0-0.4-0.1c0,0,0,0,0,0l0,0c-0.1-0.1-0.3-0.1-0.4-0.2c0,0,0,0,0,0c-0.2-0.2-0.3-0.4-0.3-0.6c0,0,0,0,0,0l0,0
						c0-0.1,0-0.1,0-0.2C23.5,27.8,23.5,27.7,23.6,27.6L23.6,27.6C23.6,27.7,23.6,27.6,23.6,27.6C23.6,27.6,23.6,27.6,23.6,27.6z
						 M23.5,11.1c0-0.1,0-0.2,0-0.2l0,0c0,0,0,0,0,0c0.1-0.5,0.6-0.9,1.2-0.9c0.3,0,0.7,0.1,0.9,0.4c0.1,0.1,0.2,0.3,0.3,0.5
						c0,0,0,0,0,0c0,0.1,0,0.2,0,0.2c0,0.1,0,0.1,0,0.2l0,0c0,0,0,0,0,0c0,0.2-0.1,0.3-0.2,0.5c-0.2,0.3-0.5,0.4-0.9,0.5
						c-0.2,0-0.3,0-0.5-0.1c0,0,0,0,0,0l0,0c-0.1,0-0.2-0.1-0.3-0.2c0,0-0.1,0-0.1-0.1c0,0,0,0,0,0c-0.1-0.1-0.2-0.3-0.3-0.5l0,0
						c0,0,0,0,0-0.1l0,0l0,0C23.5,11.2,23.5,11.1,23.5,11.1z M37.7,27.9c0-0.1,0-0.1,0-0.2l0,0c0,0,0,0,0,0c0-0.2,0.1-0.3,0.2-0.5
						c0.2-0.3,0.6-0.5,0.9-0.5c0.6,0,1.1,0.4,1.2,1c0,0.1,0,0.2,0,0.2c0,0.1,0,0.2,0,0.3c-0.1,0.5-0.6,0.9-1.2,0.9
						c-0.1,0-0.3,0-0.4-0.1c-0.2-0.1-0.3-0.1-0.4-0.3c0,0-0.1-0.1-0.1-0.1c-0.1-0.1-0.2-0.3-0.3-0.5l0,0l0,0l0,0c0,0,0-0.1,0-0.1
						C37.7,28,37.7,27.9,37.7,27.9z M37.7,11.1c0-0.1,0-0.2,0-0.2c0,0,0,0,0,0c0-0.2,0.1-0.4,0.3-0.5c0.2-0.3,0.6-0.4,0.9-0.4
						c0.6,0,1.1,0.4,1.2,1c0,0.1,0,0.2,0,0.2c0,0.1,0,0.2,0,0.3c-0.1,0.5-0.6,0.9-1.2,0.9c-0.1,0-0.3,0-0.4-0.1
						c-0.2-0.1-0.3-0.1-0.4-0.3c0,0-0.1-0.1-0.1-0.1c-0.1-0.1-0.2-0.3-0.2-0.5c0,0,0,0,0,0l0,0C37.7,11.2,37.7,11.1,37.7,11.1z
						 M41.7,4.2c0-0.1,0-0.2,0-0.2c0-0.2,0.1-0.4,0.2-0.5C42.2,3.2,42.5,3,42.9,3c0.7,0,1.2,0.5,1.2,1.2c0,0.7-0.5,1.2-1.2,1.2
						c-0.4,0-0.7-0.2-0.9-0.4c-0.1-0.1-0.2-0.3-0.3-0.5C41.7,4.4,41.7,4.3,41.7,4.2z M4.6,19.5c0,0.1,0,0.2,0,0.3l0,0v0c0,0,0,0,0,0
						c0,0.2-0.1,0.3-0.2,0.4c0,0,0,0-0.1,0.1c0,0.1-0.1,0.1-0.2,0.1C4,20.5,4,20.5,3.9,20.6c-0.1,0-0.1,0-0.2,0.1
						c-0.1,0-0.2,0-0.3,0c-0.1,0-0.2,0-0.3-0.1c-0.2-0.1-0.3-0.1-0.4-0.3c-0.2-0.2-0.3-0.4-0.3-0.6l0,0c0-0.1,0-0.2,0-0.2
						c0-0.1,0-0.2,0-0.2l0,0v0c0.1-0.3,0.2-0.5,0.4-0.7c0.1-0.1,0.3-0.2,0.5-0.2c0.2,0,0.4-0.1,0.5,0c0.2,0,0.3,0.1,0.5,0.2
						c0.1,0.1,0.2,0.1,0.2,0.2c0.1,0.1,0.2,0.3,0.2,0.5l0,0C4.6,19.3,4.6,19.4,4.6,19.5z"/>
				</defs>
				<clipPath id="SVGID_3_">
					<use xlink:href="#SVGID_122_"  overflow="visible"/>
				</clipPath>
				<linearGradient id="SVGID_5_" gradientUnits="userSpaceOnUse" x1="-1.881" y1="5.3181" x2="47.839" y2="34.024">
					<stop  offset="0" style="stop-color:#02E59E"/>
					<stop  offset="0.5" style="stop-color:#00B5C3"/>
					<stop  offset="1" style="stop-color:#0583EA"/>
				</linearGradient>
				<rect x="0.3" y="1.5" clip-path="url(#SVGID_3_)" fill="url(#SVGID_5_)" width="45.3" height="36.4"/>
			</g>
		</g>
	</g>
</g>
<g id="Layer_2">
</g>
</svg>
